<?xml version="1.0" encoding="UTF-8" standalone="no"?>
<!-- Created with Inkscape (http://www.inkscape.org/) -->

<svg
   xmlns:dc="http://purl.org/dc/elements/1.1/"
   xmlns:cc="http://creativecommons.org/ns#"
   xmlns:rdf="http://www.w3.org/1999/02/22-rdf-syntax-ns#"
   xmlns:svg="http://www.w3.org/2000/svg"
   xmlns="http://www.w3.org/2000/svg"
   xmlns:sodipodi="http://sodipodi.sourceforge.net/DTD/sodipodi-0.dtd"
   xmlns:inkscape="http://www.inkscape.org/namespaces/inkscape"
   width="24"
   height="24"
   id="svg2985"
   version="1.1"
   inkscape:version="0.91 r13725"
   sodipodi:docname="ic_func_gen_normal.svg"
   inkscape:export-filename="/home/kuldeep/my-work/box0/android/box0/extra/res/ic_fgen-mdpi.png"
   inkscape:export-xdpi="90"
   inkscape:export-ydpi="90">
  <sodipodi:namedview
     id="base"
     pagecolor="#ffffff"
     bordercolor="#666666"
     borderopacity="1.0"
     inkscape:pageopacity="0.0"
     inkscape:pageshadow="2"
     inkscape:zoom="7.5130095"
     inkscape:cx="-11.759327"
     inkscape:cy="3.9119874"
     inkscape:current-layer="layer1"
     showgrid="true"
     inkscape:grid-bbox="true"
     inkscape:document-units="px"
     inkscape:window-width="1366"
     inkscape:window-height="682"
     inkscape:window-x="0"
     inkscape:window-y="33"
     inkscape:window-maximized="1" />
  <defs
     id="defs2987" />
  <metadata
     id="metadata2990">
    <rdf:RDF>
      <cc:Work
         rdf:about="">
        <dc:format>image/svg+xml</dc:format>
        <dc:type
           rdf:resource="http://purl.org/dc/dcmitype/StillImage" />
        <dc:title />
      </cc:Work>
    </rdf:RDF>
  </metadata>
  <g
     inkscape:groupmode="layer"
     inkscape:label="Layer 1"
     id="layer1"
     transform="translate(0,8)">
    <text
       xml:space="preserve"
       style="font-style:italic;font-variant:normal;font-weight:bold;font-stretch:normal;font-size:13.76526451px;line-height:125%;font-family:FreeSerif;-inkscape-font-specification:'FreeSerif Bold Italic';text-align:start;letter-spacing:0px;word-spacing:0px;writing-mode:lr-tb;text-anchor:start;fill:#333333;fill-opacity:1;stroke:#333333;stroke-width:1.99999988;stroke-miterlimit:4;stroke-dasharray:none;stroke-opacity:0"
       x="3.7300136"
       y="7.242147"
       id="text3983"
       sodipodi:linespacing="125%"
       transform="scale(0.96225228,1.0392285)"><tspan
         sodipodi:role="line"
         id="tspan3985"
         x="3.7300136"
         y="7.242147"
         style="font-style:italic;font-variant:normal;font-weight:bold;font-stretch:normal;font-size:13.76526451px;line-height:125%;font-family:FreeSerif;-inkscape-font-specification:'FreeSerif Bold Italic';text-align:start;writing-mode:lr-tb;text-anchor:start;fill:#333333;fill-opacity:1;stroke:#333333;stroke-width:1.99999988;stroke-miterlimit:4;stroke-dasharray:none;stroke-opacity:0">f(x)</tspan></text>
  </g>
</svg>
